\relax 
\@writefile{toc}{\contentsline {section}{\numberline {1}Introduction}{2}{}\protected@file@percent }
\@writefile{toc}{\contentsline {subsection}{\numberline {1.1}Déploiement}{2}{}\protected@file@percent }
\@writefile{toc}{\contentsline {section}{\numberline {2}Format}{3}{}\protected@file@percent }
\@writefile{toc}{\contentsline {subsection}{\numberline {2.1}API REST}{3}{}\protected@file@percent }
\@writefile{toc}{\contentsline {subsection}{\numberline {2.2}Base de donnée}{4}{}\protected@file@percent }
\@writefile{toc}{\contentsline {section}{\numberline {3}Explication}{5}{}\protected@file@percent }
\gdef \@abspage@last{5}
